…
## Submission 3

``` r
mean_death_rate_of_confirmed <- covid %>%
  filter(people_vaccinated>=1) %>%
  mutate(death_rate_of_confirmed = deaths/confirmed) %>%
  select(state, death_rate_of_confirmed) %>%
  group_by(state)%>%
  summarize(mdrc = mean(death_rate_of_confirmed)) 

mean_death_rate_of_confirmed 
```

    # A tibble: 50 × 2
       state          mdrc
       <chr>         <dbl>
     1 Alabama     0.0186 
     2 Alaska      0.00500
     3 Arizona     0.0186 
     4 Arkansas    0.0163 
     5 California  0.0147 
     6 Colorado    0.0124 
     7 Connecticut 0.0239 
     8 Delaware    0.0150 
     9 Florida     0.0156 
    10 Georgia     0.0173 
    # … with 40 more rows

``` r
mean_death_rate_of_confirmed2 <- covid %>%
  filter(!is.na(confirmed),!is.na(deaths)) %>%
  filter(is.na(people_vaccinated)) %>%
  mutate(death_rate_of_confirmed2 = deaths/confirmed) %>%
  select(state, death_rate_of_confirmed2) %>%
  group_by(state)%>%
  summarize(mdrc2 = mean(death_rate_of_confirmed2))


mean_death_rate_of_confirmed2
```

    # A tibble: 50 × 2
       state         mdrc2
       <chr>         <dbl>
     1 Alabama     0.0214 
     2 Alaska      0.00945
     3 Arizona     0.0231 
     4 Arkansas    0.0149 
     5 California  0.0209 
     6 Colorado    0.0345 
     7 Connecticut 0.0705 
     8 Delaware    0.0308 
     9 Florida     0.0263 
    10 Georgia     0.0280 
    # … with 40 more rows
…
I didn’t get around to plotting because I am having some issues with the
table, although I am grouping by state, I get multiple rows of the
calculations per state (same numbers in each one).I was unable to solve
this problem

N/A

## Submission 8

``` r
covid %>% group_by(tests) %>%
  summarize(mean_death = mean(deaths, na.rm = TRUE))
```

    # A tibble: 34,028 × 2
       tests mean_death
       <int>      <dbl>
     1     1      0.367
     2     2      0.571
     3     3      2.75 
     4     4      3.68 
     5     5      0    
     6     6      2.14 
     7     7      0    
     8     8      0    
     9     9      0    
    10    10      0.857
    # … with 34,018 more rows
…
## Submission 28

``` r
select(covid, state, date, c1_school_closing, c2_workplace_closing)
```

    # A tibble: 34,890 × 4
       state      date       c1_school_closing c2_workplace_closing
       <chr>      <date>     <fct>             <fct>               
     1 Washington 2020-01-21 0                 0                   
     2 Washington 2020-01-22 0                 0                   
     3 Washington 2020-01-23 0                 0                   
     4 Washington 2020-01-24 0                 0                   
     5 Illinois   2020-01-24 0                 0                   
     6 California 2020-01-25 0                 0                   
     7 Washington 2020-01-25 0                 0                   
     8 Illinois   2020-01-25 0                 0                   
     9 California 2020-01-26 0                 0                   
    10 Washington 2020-01-26 0                 0                   
    # … with 34,880 more rows
…
